…
<img src="hatvp_files/figure-gfm/types-1.png" width="672" />

<details>
<summary>
Voir les données
</summary>

| Description | Nb_parts | Valeur |
|:------------|---------:|-------:|

</details>

## Personnes

    ## # A tibble: 23 × 5
    ## # Groups:   Type_mandat [3]
    ##    Nom            Prénom    Type_mandat            Mandat                 Valeur
    ##    <chr>          <chr>     <chr>                  <chr>                   <int>
    ##  1 valletoux      frederic  député ou sénateur     ""                     9.36e5
    ##  2 ferrari        marina    député ou sénateur     ""                     5.24e5
    ##  3 kasbarian      guillaume député ou sénateur     ""                     4.07e5
    ##  4 riester        franck    membre du gouvernement "ministre délégué cha… 1.73e7
    ##  5 oudéa-castéra  amélie    membre du gouvernement "ministre de l'éducat… 7.55e6
    ##  6 penicaud       muriel    membre du gouvernement "ministre du travail"  7.54e6
    ##  7 hulot          nicolas   membre du gouvernement "ministre de la trans… 7.52e6
    ##  8 firmin le bodo agnès     membre du gouvernement "ministre déléguée au… 6.19e6
    ##  9 dati           rachida   membre du gouvernement "ministre de la cultu… 5.61e6
    ## 10 guerini        stanislas membre du gouvernement "ministre de la trans… 5.31e6
    ## # ℹ 13 more rows
…
